…
Gather :

Gather function converts the data frame longer instead of wider.In the below example we select the columns depicting :

year,artist\_hotness,artist\_familiarity and duration

``` r
hfd_y <-singer_locations %>% 
  select(year,artist_hotttnesss,artist_familiarity,duration)
hfd_y
```

    ## # A tibble: 10,100 x 4
    ##     year artist_hotttnesss artist_familiarity duration
    ##    <int>             <dbl>              <dbl>    <dbl>
    ##  1  2007         0.6410183          0.8230522 170.4485
    ##  2  2004         0.3937627          0.5700167 106.5530
    ##  3  1998         0.4306226          0.5039940 527.5947
    ##  4  1995         0.3622792          0.4773099 695.1179
    ##  5  1968         0.4107520          0.5303468 237.3220
    ##  6  2006         0.3762635          0.5412950 192.9400
    ##  7  2003         0.1814601          0.2744329 239.5424
    ##  8  2007         0.4743547          0.6979295 222.8502
    ##  9  1966         0.5103250          0.7964934 177.9718
    ## 10  2006         0.4196401          0.5931096 259.8395
    ## # ... with 10,090 more rows

``` r
hfd_y_long <-hfd_y %>% 
  gather(key = "Measure",value ="Units", artist_hotttnesss:duration)
hfd_y_long
```

    ## # A tibble: 30,300 x 3
    ##     year           Measure     Units
    ##    <int>             <chr>     <dbl>
    ##  1  2007 artist_hotttnesss 0.6410183
    ##  2  2004 artist_hotttnesss 0.3937627
    ##  3  1998 artist_hotttnesss 0.4306226
    ##  4  1995 artist_hotttnesss 0.3622792
    ##  5  1968 artist_hotttnesss 0.4107520
    ##  6  2006 artist_hotttnesss 0.3762635
    ##  7  2003 artist_hotttnesss 0.1814601
    ##  8  2007 artist_hotttnesss 0.4743547
    ##  9  1966 artist_hotttnesss 0.5103250
    ## 10  2006 artist_hotttnesss 0.4196401
    ## # ... with 30,290 more rows
SPREAD:

We use spread for wider distribution of data. Columns indicate the data that aids in spreading.

``` r
hfd_y<-singer_locations %>% 
  select(year,song_id,duration:artist_familiarity) %>% 
  gather(key ="Measures",value ="My_value",duration:artist_familiarity)
```

``` r
spread(hfd_y,Measures,My_value,fill=NA,drop = TRUE,sep=NULL)
```

    ## # A tibble: 10,100 x 5
    ##     year            song_id artist_familiarity artist_hotttnesss  duration
    ##  * <int>              <chr>              <dbl>             <dbl>     <dbl>
    ##  1     0 SOACFPP12AB0187247          0.4672135         0.0000000 216.21506
    ##  2     0 SOANGKW12AB0182CEB          0.4438926         0.0000000 110.00118
    ##  3     0 SOAOTUC12AB01868D9          0.7512330         0.5262221 233.09016
    ##  4     0 SOAZFOU12A58A79370          0.4421961         0.3847638 341.36771
    ##  5     0 SOBYVWR12A8C13A0E3          0.5658205         0.3782636 233.22077
    ##  6     0 SODYVFI12A58A81CE5          0.4872071         0.3339409 257.59302
    ##  7     0 SOEBEPI12AB01837EF          0.0000000         0.3750991 218.27873
    ##  8     0 SOEIMZR12AB01876A4          0.6190077         0.4409915  99.89179
    ##  9     0 SOELHNO12A8C13F09F          0.3963041         0.0000000 228.33587
    ## 10     0 SOENBSB12A8C13DEE4          0.4928908         0.3987057 327.49669
    ## # ... with 10,090 more rows
…
4.In Window functions, we formed a tibble with 24 rows: 2 per year, giving the country with both the lowest and highest life expectancy (in Asia). Take that table (or a similar one for all continents) and reshape it so you have one row per year or per year continent combination. Solution :

    * Grouped the data by year and continent
    * Filtered the data to get mean lifeExp country for each continent per year
    * use spread() so that the continent and meanLE data so as to form columns containing year and different continents
    * Plot mean life expectancy by year by continent 

``` r
continentLifeExp <- gapminder %>%
  group_by(continent, year) %>% 
  summarize(meanLE=mean(lifeExp))
continentLifeExp
```

    ## # A tibble: 60 x 3
    ## # Groups:   continent [?]
    ##    continent  year   meanLE
    ##       <fctr> <int>    <dbl>
    ##  1    Africa  1952 39.13550
    ##  2    Africa  1957 41.26635
    ##  3    Africa  1962 43.31944
    ##  4    Africa  1967 45.33454
    ##  5    Africa  1972 47.45094
    ##  6    Africa  1977 49.58042
    ##  7    Africa  1982 51.59287
    ##  8    Africa  1987 53.34479
    ##  9    Africa  1992 53.62958
    ## 10    Africa  1997 53.59827
    ## # ... with 50 more rows
…
``` r
continentLifeExp
```

    ## # A tibble: 60 x 3
    ## # Groups:   continent [?]
    ##    continent  year   meanLE
    ##       <fctr> <int>    <dbl>
    ##  1    Africa  1952 39.13550
    ##  2    Africa  1957 41.26635
    ##  3    Africa  1962 43.31944
    ##  4    Africa  1967 45.33454
    ##  5    Africa  1972 47.45094
    ##  6    Africa  1977 49.58042
    ##  7    Africa  1982 51.59287
    ##  8    Africa  1987 53.34479
    ##  9    Africa  1992 53.62958
    ## 10    Africa  1997 53.59827
    ## # ... with 50 more rows
…
``` r
gapminder
```

    ## # A tibble: 1,704 x 6
    ##        country continent  year lifeExp      pop gdpPercap
    ##         <fctr>    <fctr> <int>   <dbl>    <int>     <dbl>
    ##  1 Afghanistan      Asia  1952  28.801  8425333  779.4453
    ##  2 Afghanistan      Asia  1957  30.332  9240934  820.8530
    ##  3 Afghanistan      Asia  1962  31.997 10267083  853.1007
    ##  4 Afghanistan      Asia  1967  34.020 11537966  836.1971
    ##  5 Afghanistan      Asia  1972  36.088 13079460  739.9811
    ##  6 Afghanistan      Asia  1977  38.438 14880372  786.1134
    ##  7 Afghanistan      Asia  1982  39.854 12881816  978.0114
    ##  8 Afghanistan      Asia  1987  40.822 13867957  852.3959
    ##  9 Afghanistan      Asia  1992  41.674 16317921  649.3414
    ## 10 Afghanistan      Asia  1997  41.763 22227415  635.3414
    ## # ... with 1,694 more rows
…
left\_join() : Retains the column country in gapminder dataset and appends the capital city(New data) as a new column into the gampminder dataset. left\_join returns data from the second data frame aswell.Please note Column 7 in the below table (i.e. capital city)

``` r
Left_Join <-left_join(gapminder,country_capitals ,by = "country")
```

    ## Warning: Column `country` joining factors with different levels, coercing
    ## to character vector

``` r
Left_Join %>% filter(country %in% c("Australia","Austria","Belgium","China", "Italy", "Croatia", "Egypt", "Greece", "India"))
```

    ## # A tibble: 108 x 7
    ##      country continent  year lifeExp      pop gdpPercap  capital
    ##        <chr>    <fctr> <int>   <dbl>    <int>     <dbl>   <fctr>
    ##  1 Australia   Oceania  1952   69.12  8691212  10039.60 CANBERRA
    ##  2 Australia   Oceania  1957   70.33  9712569  10949.65 CANBERRA
    ##  3 Australia   Oceania  1962   70.93 10794968  12217.23 CANBERRA
    ##  4 Australia   Oceania  1967   71.10 11872264  14526.12 CANBERRA
    ##  5 Australia   Oceania  1972   71.93 13177000  16788.63 CANBERRA
    ##  6 Australia   Oceania  1977   73.49 14074100  18334.20 CANBERRA
    ##  7 Australia   Oceania  1982   74.74 15184200  19477.01 CANBERRA
    ##  8 Australia   Oceania  1987   76.32 16257249  21888.89 CANBERRA
    ##  9 Australia   Oceania  1992   77.56 17481977  23424.77 CANBERRA
    ## 10 Australia   Oceania  1997   78.83 18565243  26997.94 CANBERRA
    ## # ... with 98 more rows
…
``` r
Anti_join<-anti_join(gapminder,country_capitals)
```

    ## Joining, by = "country"

    ## Warning: Column `country` joining factors with different levels, coercing
    ## to character vector

``` r
Anti_join
```

    ## # A tibble: 1,596 x 6
    ##        country continent  year lifeExp      pop gdpPercap
    ##         <fctr>    <fctr> <int>   <dbl>    <int>     <dbl>
    ##  1 Afghanistan      Asia  1952  28.801  8425333  779.4453
    ##  2 Afghanistan      Asia  1957  30.332  9240934  820.8530
    ##  3 Afghanistan      Asia  1962  31.997 10267083  853.1007
    ##  4 Afghanistan      Asia  1967  34.020 11537966  836.1971
    ##  5 Afghanistan      Asia  1972  36.088 13079460  739.9811
    ##  6 Afghanistan      Asia  1977  38.438 14880372  786.1134
    ##  7 Afghanistan      Asia  1982  39.854 12881816  978.0114
    ##  8 Afghanistan      Asia  1987  40.822 13867957  852.3959
    ##  9 Afghanistan      Asia  1992  41.674 16317921  649.3414
    ## 10 Afghanistan      Asia  1997  41.763 22227415  635.3414
    ## # ... with 1,586 more rows
…
``` r
Semi_join<-semi_join(gapminder,country_capitals)
```

    ## Joining, by = "country"

    ## Warning: Column `country` joining factors with different levels, coercing
    ## to character vector

``` r
Semi_join %>% filter(country %in% c("Australia","Austria","Belgium","China", "Italy", "Croatia", "Egypt", "Greece", "India"))
```

    ## # A tibble: 108 x 6
    ##      country continent  year lifeExp      pop gdpPercap
    ##       <fctr>    <fctr> <int>   <dbl>    <int>     <dbl>
    ##  1 Australia   Oceania  1952   69.12  8691212  10039.60
    ##  2 Australia   Oceania  1957   70.33  9712569  10949.65
    ##  3 Australia   Oceania  1962   70.93 10794968  12217.23
    ##  4 Australia   Oceania  1967   71.10 11872264  14526.12
    ##  5 Australia   Oceania  1972   71.93 13177000  16788.63
    ##  6 Australia   Oceania  1977   73.49 14074100  18334.20
    ##  7 Australia   Oceania  1982   74.74 15184200  19477.01
    ##  8 Australia   Oceania  1987   76.32 16257249  21888.89
    ##  9 Australia   Oceania  1992   77.56 17481977  23424.77
    ## 10 Australia   Oceania  1997   78.83 18565243  26997.94
    ## # ... with 98 more rows
…
``` r
Full_join <-full_join(gapminder,country_capitals)
```

    ## Joining, by = "country"

    ## Warning: Column `country` joining factors with different levels, coercing
    ## to character vector

``` r
Full_join %>% filter(country %in% c("Australia","Austria","Belgium","China", "Italy", "Croatia", "Egypt", "Greece", "India"))
```

    ## # A tibble: 108 x 7
    ##      country continent  year lifeExp      pop gdpPercap  capital
    ##        <chr>    <fctr> <int>   <dbl>    <int>     <dbl>   <fctr>
    ##  1 Australia   Oceania  1952   69.12  8691212  10039.60 CANBERRA
    ##  2 Australia   Oceania  1957   70.33  9712569  10949.65 CANBERRA
    ##  3 Australia   Oceania  1962   70.93 10794968  12217.23 CANBERRA
    ##  4 Australia   Oceania  1967   71.10 11872264  14526.12 CANBERRA
    ##  5 Australia   Oceania  1972   71.93 13177000  16788.63 CANBERRA
    ##  6 Australia   Oceania  1977   73.49 14074100  18334.20 CANBERRA
    ##  7 Australia   Oceania  1982   74.74 15184200  19477.01 CANBERRA
    ##  8 Australia   Oceania  1987   76.32 16257249  21888.89 CANBERRA
    ##  9 Australia   Oceania  1992   77.56 17481977  23424.77 CANBERRA
    ## 10 Australia   Oceania  1997   78.83 18565243  26997.94 CANBERRA
    ## # ... with 98 more rows
…
``` r
Inner_join <-inner_join(gapminder,country_capitals)
```

    ## Joining, by = "country"

    ## Warning: Column `country` joining factors with different levels, coercing
    ## to character vector

``` r
Inner_join %>% filter(country %in% c("Australia","Austria","Belgium","China", "Italy", "Croatia", "Egypt", "Greece", "India"))
```

    ## # A tibble: 108 x 7
    ##      country continent  year lifeExp      pop gdpPercap  capital
    ##        <chr>    <fctr> <int>   <dbl>    <int>     <dbl>   <fctr>
    ##  1 Australia   Oceania  1952   69.12  8691212  10039.60 CANBERRA
    ##  2 Australia   Oceania  1957   70.33  9712569  10949.65 CANBERRA
    ##  3 Australia   Oceania  1962   70.93 10794968  12217.23 CANBERRA
    ##  4 Australia   Oceania  1967   71.10 11872264  14526.12 CANBERRA
    ##  5 Australia   Oceania  1972   71.93 13177000  16788.63 CANBERRA
    ##  6 Australia   Oceania  1977   73.49 14074100  18334.20 CANBERRA
    ##  7 Australia   Oceania  1982   74.74 15184200  19477.01 CANBERRA
    ##  8 Australia   Oceania  1987   76.32 16257249  21888.89 CANBERRA
    ##  9 Australia   Oceania  1992   77.56 17481977  23424.77 CANBERRA
    ## 10 Australia   Oceania  1997   78.83 18565243  26997.94 CANBERRA
    ## # ... with 98 more rows
…
