…
Question :Nest the data by country (and continent).

Let's create a Nested Dataframe

-   Reference for Nested dataframe is from[class notes](http://stat545.com/block024_group-nest-split-map.html#general-approach-nesting)

``` r
nestedGapminder <- gapminder %>% 
  group_by( continent , country ) %>% 
  nest( )
nestedGapminder
```

    ## # A tibble: 142 x 3
    ##    continent     country              data
    ##       <fctr>      <fctr>            <list>
    ##  1      Asia Afghanistan <tibble [12 x 4]>
    ##  2    Europe     Albania <tibble [12 x 4]>
    ##  3    Africa     Algeria <tibble [12 x 4]>
    ##  4    Africa      Angola <tibble [12 x 4]>
    ##  5  Americas   Argentina <tibble [12 x 4]>
    ##  6   Oceania   Australia <tibble [12 x 4]>
    ##  7    Europe     Austria <tibble [12 x 4]>
    ##  8      Asia     Bahrain <tibble [12 x 4]>
    ##  9      Asia  Bangladesh <tibble [12 x 4]>
    ## 10    Europe     Belgium <tibble [12 x 4]>
    ## # ... with 132 more rows
…
Scale this up to all countries by using map() and mutate () to the entire nested dataframe

``` r
(nestedGapminderLinearFit <- nestedGapminder %>% 
  mutate( linearFit = map( data , linearFitFunctionOncountrySelected ) ))
```

    ## # A tibble: 142 x 4
    ##    continent     country              data linearFit
    ##       <fctr>      <fctr>            <list>    <list>
    ##  1      Asia Afghanistan <tibble [12 x 4]> <dbl [2]>
    ##  2    Europe     Albania <tibble [12 x 4]> <dbl [2]>
    ##  3    Africa     Algeria <tibble [12 x 4]> <dbl [2]>
    ##  4    Africa      Angola <tibble [12 x 4]> <dbl [2]>
    ##  5  Americas   Argentina <tibble [12 x 4]> <dbl [2]>
    ##  6   Oceania   Australia <tibble [12 x 4]> <dbl [2]>
    ##  7    Europe     Austria <tibble [12 x 4]> <dbl [2]>
    ##  8      Asia     Bahrain <tibble [12 x 4]> <dbl [2]>
    ##  9      Asia  Bangladesh <tibble [12 x 4]> <dbl [2]>
    ## 10    Europe     Belgium <tibble [12 x 4]> <dbl [2]>
    ## # ... with 132 more rows
…
Question : Use functions for working with fitted models or the broom package to get information out of your linear models

Solution:

Let's use functions from broom package to get information out of your linear models.

``` r
## Let's map the tidy function to the entire nested dataframe

(nestedGapminderLinearFit <- nestedGapminderLinearFit %>% 
  mutate( tidy = map( linearFit , tidy ) ))
```

    ## # A tibble: 142 x 5
    ##    continent     country              data linearFit             tidy
    ##       <fctr>      <fctr>            <list>    <list>           <list>
    ##  1      Asia Afghanistan <tibble [12 x 4]> <dbl [2]> <tibble [2 x 2]>
    ##  2    Europe     Albania <tibble [12 x 4]> <dbl [2]> <tibble [2 x 2]>
    ##  3    Africa     Algeria <tibble [12 x 4]> <dbl [2]> <tibble [2 x 2]>
    ##  4    Africa      Angola <tibble [12 x 4]> <dbl [2]> <tibble [2 x 2]>
    ##  5  Americas   Argentina <tibble [12 x 4]> <dbl [2]> <tibble [2 x 2]>
    ##  6   Oceania   Australia <tibble [12 x 4]> <dbl [2]> <tibble [2 x 2]>
    ##  7    Europe     Austria <tibble [12 x 4]> <dbl [2]> <tibble [2 x 2]>
    ##  8      Asia     Bahrain <tibble [12 x 4]> <dbl [2]> <tibble [2 x 2]>
    ##  9      Asia  Bangladesh <tibble [12 x 4]> <dbl [2]> <tibble [2 x 2]>
    ## 10    Europe     Belgium <tibble [12 x 4]> <dbl [2]> <tibble [2 x 2]>
    ## # ... with 132 more rows
…
Same intercept and slope values are returned .

Let's extract some more information of Linear models using broom package's do() function

``` r
(leVsYear_LinearFit_Broom <- gapminder %>% 
  group_by( continent , country ) %>% 
  do( linearFit = lm( lifeExp ~ I( year - 1952 ) , . ) ))
```

    ## Source: local data frame [142 x 3]
    ## Groups: <by row>
    ## 
    ## # A tibble: 142 x 3
    ##    continent                  country linearFit
    ##  *    <fctr>                   <fctr>    <list>
    ##  1    Africa                  Algeria  <S3: lm>
    ##  2    Africa                   Angola  <S3: lm>
    ##  3    Africa                    Benin  <S3: lm>
    ##  4    Africa                 Botswana  <S3: lm>
    ##  5    Africa             Burkina Faso  <S3: lm>
    ##  6    Africa                  Burundi  <S3: lm>
    ##  7    Africa                 Cameroon  <S3: lm>
    ##  8    Africa Central African Republic  <S3: lm>
    ##  9    Africa                     Chad  <S3: lm>
    ## 10    Africa                  Comoros  <S3: lm>
    ## # ... with 132 more rows
…
``` r
(nestedGapminderRobustFit <- nestedGapminder %>% 
  mutate( robustFit = map( data , robustFitFunctionOnCountrySelected ) ))
```

    ## Warning in rlm.default(x, y, weights, method = method, wt.method =
    ## wt.method, : 'rlm' failed to converge in 20 steps

    ## Warning in rlm.default(x, y, weights, method = method, wt.method =
    ## wt.method, : 'rlm' failed to converge in 20 steps

    ## Warning in rlm.default(x, y, weights, method = method, wt.method =
    ## wt.method, : 'rlm' failed to converge in 20 steps

    ## # A tibble: 142 x 4
    ##    continent     country              data robustFit
    ##       <fctr>      <fctr>            <list>    <list>
    ##  1      Asia Afghanistan <tibble [12 x 4]> <dbl [2]>
    ##  2    Europe     Albania <tibble [12 x 4]> <dbl [2]>
    ##  3    Africa     Algeria <tibble [12 x 4]> <dbl [2]>
    ##  4    Africa      Angola <tibble [12 x 4]> <dbl [2]>
    ##  5  Americas   Argentina <tibble [12 x 4]> <dbl [2]>
    ##  6   Oceania   Australia <tibble [12 x 4]> <dbl [2]>
    ##  7    Europe     Austria <tibble [12 x 4]> <dbl [2]>
    ##  8      Asia     Bahrain <tibble [12 x 4]> <dbl [2]>
    ##  9      Asia  Bangladesh <tibble [12 x 4]> <dbl [2]>
    ## 10    Europe     Belgium <tibble [12 x 4]> <dbl [2]>
    ## # ... with 132 more rows
…
    ##  intercept      slope 
    ## 65.1220513  0.3529042

Let's apply tidy() to this nested Dataframe

``` r
(nestedGapminderRobustFit <- nestedGapminderRobustFit %>% 
  mutate( tidy = map( robustFit , tidy ) ) )
```

    ## # A tibble: 142 x 5
    ##    continent     country              data robustFit             tidy
    ##       <fctr>      <fctr>            <list>    <list>           <list>
    ##  1      Asia Afghanistan <tibble [12 x 4]> <dbl [2]> <tibble [2 x 2]>
    ##  2    Europe     Albania <tibble [12 x 4]> <dbl [2]> <tibble [2 x 2]>
    ##  3    Africa     Algeria <tibble [12 x 4]> <dbl [2]> <tibble [2 x 2]>
    ##  4    Africa      Angola <tibble [12 x 4]> <dbl [2]> <tibble [2 x 2]>
    ##  5  Americas   Argentina <tibble [12 x 4]> <dbl [2]> <tibble [2 x 2]>
    ##  6   Oceania   Australia <tibble [12 x 4]> <dbl [2]> <tibble [2 x 2]>
    ##  7    Europe     Austria <tibble [12 x 4]> <dbl [2]> <tibble [2 x 2]>
    ##  8      Asia     Bahrain <tibble [12 x 4]> <dbl [2]> <tibble [2 x 2]>
    ##  9      Asia  Bangladesh <tibble [12 x 4]> <dbl [2]> <tibble [2 x 2]>
    ## 10    Europe     Belgium <tibble [12 x 4]> <dbl [2]> <tibble [2 x 2]>
    ## # ... with 132 more rows
…
    ## Warning in rlm.default(x, y, weights, method = method, wt.method =
    ## wt.method, : 'rlm' failed to converge in 20 steps

    ## Warning in rlm.default(x, y, weights, method = method, wt.method =
    ## wt.method, : 'rlm' failed to converge in 20 steps

    ## Warning in rlm.default(x, y, weights, method = method, wt.method =
    ## wt.method, : 'rlm' failed to converge in 20 steps

    ## Source: local data frame [142 x 2]
    ## Groups: <by row>
    ## 
    ## # A tibble: 142 x 2
    ##        country Robustfit
    ##  *      <fctr>    <list>
    ##  1 Afghanistan <S3: rlm>
    ##  2     Albania <S3: rlm>
    ##  3     Algeria <S3: rlm>
    ##  4      Angola <S3: rlm>
    ##  5   Argentina <S3: rlm>
    ##  6   Australia <S3: rlm>
    ##  7     Austria <S3: rlm>
    ##  8     Bahrain <S3: rlm>
    ##  9  Bangladesh <S3: rlm>
    ## 10     Belgium <S3: rlm>
    ## # ... with 132 more rows
…
Scale this up to all countries by using map() and mutate () to the entire nested dataframe

``` r
(nestedGapminderQuadraticFit <- nestedGapminder %>% 
  mutate( quadraticFit = map( data , quadraticFitFunctionOnCountrySelected ) ) )
```

    ## # A tibble: 142 x 4
    ##    continent     country              data quadraticFit
    ##       <fctr>      <fctr>            <list>       <list>
    ##  1      Asia Afghanistan <tibble [12 x 4]>    <dbl [3]>
    ##  2    Europe     Albania <tibble [12 x 4]>    <dbl [3]>
    ##  3    Africa     Algeria <tibble [12 x 4]>    <dbl [3]>
    ##  4    Africa      Angola <tibble [12 x 4]>    <dbl [3]>
    ##  5  Americas   Argentina <tibble [12 x 4]>    <dbl [3]>
    ##  6   Oceania   Australia <tibble [12 x 4]>    <dbl [3]>
    ##  7    Europe     Austria <tibble [12 x 4]>    <dbl [3]>
    ##  8      Asia     Bahrain <tibble [12 x 4]>    <dbl [3]>
    ##  9      Asia  Bangladesh <tibble [12 x 4]>    <dbl [3]>
    ## 10    Europe     Belgium <tibble [12 x 4]>    <dbl [3]>
    ## # ... with 132 more rows
…
    ## # A tibble: 3 x 2
    ##       names           x
    ##       <chr>       <dbl>
    ## 1 intercept 62.99542582
    ## 2   slope 1  0.60809925
    ## 3   slope 2 -0.00463991

``` r
(nestedGapminderQuadraticFit <- nestedGapminderQuadraticFit %>% 
  mutate( tidy = map( quadraticFit , tidy ) ))
```

    ## # A tibble: 142 x 5
    ##    continent     country              data quadraticFit             tidy
    ##       <fctr>      <fctr>            <list>       <list>           <list>
    ##  1      Asia Afghanistan <tibble [12 x 4]>    <dbl [3]> <tibble [3 x 2]>
    ##  2    Europe     Albania <tibble [12 x 4]>    <dbl [3]> <tibble [3 x 2]>
    ##  3    Africa     Algeria <tibble [12 x 4]>    <dbl [3]> <tibble [3 x 2]>
    ##  4    Africa      Angola <tibble [12 x 4]>    <dbl [3]> <tibble [3 x 2]>
    ##  5  Americas   Argentina <tibble [12 x 4]>    <dbl [3]> <tibble [3 x 2]>
    ##  6   Oceania   Australia <tibble [12 x 4]>    <dbl [3]> <tibble [3 x 2]>
    ##  7    Europe     Austria <tibble [12 x 4]>    <dbl [3]> <tibble [3 x 2]>
    ##  8      Asia     Bahrain <tibble [12 x 4]>    <dbl [3]> <tibble [3 x 2]>
    ##  9      Asia  Bangladesh <tibble [12 x 4]>    <dbl [3]> <tibble [3 x 2]>
    ## 10    Europe     Belgium <tibble [12 x 4]>    <dbl [3]> <tibble [3 x 2]>
    ## # ... with 132 more rows
…
Let's extract some more information using broom package's do() function

``` r
leVsYear_QuadraticFit_Broom <- gapminder %>% 
  group_by( country ) %>% 
  do( quadraticFit = lm( lifeExp ~ I( year - 1952 ) + I( ( year - 1952 )^2 ) ,data=. ) ) %>% 
  print(n=5)
```

    ## Source: local data frame [142 x 2]
    ## Groups: <by row>
    ## 
    ## # A tibble: 142 x 2
    ##       country quadraticFit
    ## *      <fctr>       <list>
    ## 1 Afghanistan     <S3: lm>
    ## 2     Albania     <S3: lm>
    ## 3     Algeria     <S3: lm>
    ## 4      Angola     <S3: lm>
    ## 5   Argentina     <S3: lm>
    ## # ... with 137 more rows
…
-   Find the difference in estimated parameters between Linear and Robust regressions
-   Do a right join by 'country' on the two regression estimates
-   Use filter() and Intercept Difference to narrow down the interesting countries

``` r
## Find the difference in parameters between Linear and Robust regressions 

## Do a right join by 'country' on the two regression estimates  
( leVsYear_Linear_Robust <- right_join( nestedGapminderLinearFitUnnestExplore , 
                                             nestedGapminderRobustFitUnnestExplore , 
                                             by = c( "country" ) 
                                             ) ) 
```

    ## # A tibble: 142 x 5
    ##        country intercept.x   slope.x intercept.y   slope.y
    ##         <fctr>       <dbl>     <dbl>       <dbl>     <dbl>
    ##  1 Afghanistan    29.90729 0.2753287    29.90729 0.2753287
    ##  2     Albania    59.22913 0.3346832    59.94168 0.3160949
    ##  3     Algeria    43.37497 0.5692797    43.15800 0.5758313
    ##  4      Angola    32.12665 0.2093399    32.13493 0.2090313
    ##  5   Argentina    62.68844 0.2317084    62.65508 0.2327136
    ##  6   Australia    68.40051 0.2277238    68.40051 0.2277238
    ##  7     Austria    66.44846 0.2419923    66.43263 0.2426049
    ##  8     Bahrain    52.74921 0.4675077    52.66689 0.4724468
    ##  9  Bangladesh    36.13549 0.4981308    36.14245 0.4980833
    ## 10     Belgium    67.89192 0.2090846    67.92745 0.2085561
    ## # ... with 132 more rows
…
Let's semi\_join() by 'country' on 'gapminder' and 'interestingcountries'

``` r
( interestingCountries <-  semi_join( gapminder ,interestingCountries ,by = "country" ) ) 
```

    ## # A tibble: 84 x 6
    ##     country continent  year lifeExp     pop gdpPercap
    ##      <fctr>    <fctr> <int>   <dbl>   <int>     <dbl>
    ##  1 Bulgaria    Europe  1952   59.60 7274900  2444.287
    ##  2 Bulgaria    Europe  1957   66.61 7651254  3008.671
    ##  3 Bulgaria    Europe  1962   69.51 8012946  4254.338
    ##  4 Bulgaria    Europe  1967   70.42 8310226  5577.003
    ##  5 Bulgaria    Europe  1972   70.90 8576200  6597.494
    ##  6 Bulgaria    Europe  1977   70.81 8797022  7612.240
    ##  7 Bulgaria    Europe  1982   71.08 8892098  8224.192
    ##  8 Bulgaria    Europe  1987   71.34 8971958  8239.855
    ##  9 Bulgaria    Europe  1992   71.19 8658506  6302.623
    ## 10 Bulgaria    Europe  1997   70.32 8066057  5970.389
    ## # ... with 74 more rows
…
